Individual Specific Allele Frequency
…
bas_dt <- 
  map_dfr(bas_files,read_basfiles ) %>%
  rename(avg_qual="average_quality_of_mapped_bases") %>%
  group_by(sample) %>% summarize(avg_qual = mean(avg_qual))

## Warning: The following named parsers don't match the column names: sample,
## average_quality_of_mapped_bases

#keep samples in 1kGP VCF files
bas_dt <- bas_dt[which((bas_dt$sample %in% ids)==T),]

bas_dt

## # A tibble: 2,504 x 2
##    sample  avg_qual
##    <chr>      <dbl>
##  1 HG00096     39.7
##  2 HG00097     36.7
##  3 HG00099     37.4
##  4 HG00100     35.7
##  5 HG00101     35.2
##  6 HG00102     35.6
##  7 HG00103     40.3
##  8 HG00105     35.9
##  9 HG00106     35.9
## 10 HG00107     35.5
## #  with 2,494 more rows
…
bas_dt <- inner_join( ped  %>% 
                       select(sample, Population),
                       bas_dt,
                     by="sample")
bas_dt

## # A tibble: 2,504 x 3
##    sample  Population avg_qual
##    <chr>   <chr>         <dbl>
##  1 HG01879 ACB            37.4
##  2 HG01880 ACB            37.2
##  3 HG01882 ACB            35.9
##  4 HG01883 ACB            35.9
##  5 HG01885 ACB            33.2
##  6 HG01956 ACB            33.7
##  7 HG01886 ACB            37.1
##  8 HG02014 ACB            37.5
##  9 HG01889 ACB            41.6
## 10 HG01890 ACB            40.6
## #  with 2,494 more rows
…
